{
	"buildDir": "/tmp/yay",
	"editor": "",
	"editorflags": "",
	"makepkgbin": "makepkg",
	"makepkgconf": "",
	"pacmanbin": "pacman",
	"pacmanconf": "/etc/pacman.conf",
	"tarbin": "bsdtar",
	"redownload": "no",
	"rebuild": "no",
	"answerclean": "None",
	"answerdiff": "None",
	"answeredit": "",
	"answerupgrade": "",
	"gitbin": "git",
	"gpgbin": "gpg",
	"gpgflags": "",
	"mflags": "",
	"sortby": "votes",
	"gitflags": "",
	"removemake": "y",
	"requestsplitn": 150,
	"sortmode": 0,
	"completionrefreshtime": 7,
	"sudoloop": false,
	"timeupdate": false,
	"devel": false,
	"cleanAfter": true,
	"gitclone": true,
	"provides": true,
	"pgpfetch": true,
	"upgrademenu": true,
	"cleanmenu": true,
	"diffmenu": true,
	"editmenu": false,
	"combinedupgrade": false,
	"useask": false
}
